WeightClassKg,Name,Division,BirthDate,BodyweightKg,Squat1Kg,Squat2Kg,Squat3Kg,Best3SquatKg,Squat4Kg,Bench1Kg,Bench2Kg,Bench3Kg,Best3BenchKg,Bench4Kg,Deadlift1Kg,Deadlift2Kg,Deadlift3Kg,Best3DeadliftKg,Deadlift4Kg,TotalKg,Event,Equipment,Sex,Place
52,Natalya Konchakova,Amateur Open,1977-08-14,50.1,97.5,105,110,110,-116,50,55,57.5,57.5,,125,135,141,141,145,308.5,SBD,Raw,F,1
52,Lidiya Sedova,Amateur Open,1988-06-22,51.7,60,67.5,72.5,72.5,,40,42.5,-45,42.5,,70,77.5,82.5,82.5,,197.5,SBD,Raw,F,2
60,Larisa Kolesnikova,Amateur Juniors 20-23,1990-12-18,59.8,92.5,102.5,107.5,107.5,,45,55,60,60,,95,120,-135,120,,287.5,SBD,Raw,F,1
60,Natalya Kolobova,Amateur Open,1982-04-28,60,75,80,85,85,,50,-55,-55,50,,100,105,-110,105,,240,SBD,Raw,F,1
67.5,Larisa Berezhnaya,Amateur Open,1977-06-14,62.1,-100,110,-120,110,,55,-65,-65,55,,100,120,-135,120,,285,SBD,Raw,F,1
67.5,Yuliya Kurova,Amateur Open,1981-12-29,61.3,75,80,85,85,,40,42.5,-45,42.5,,75,80,85,85,,212.5,SBD,Raw,F,2
75,Olga Karkishchenko,Amateur Open,1983-04-06,72.6,105,115,-120,115,,60,67.5,-70,67.5,,100,107.5,112.5,112.5,,295,SBD,Raw,F,1
75,Olga Mimonova,Amateur Open,1989-02-22,70.3,75,-80,80,80,,40,-42.5,-42.5,40,,100,105,110,110,,230,SBD,Raw,F,2
90+,Irina Yaroshenko,Amateur Open,1986-12-04,93.8,130,140,150,150,,80,90,-95,90,,170,185,-217.5,185,,425,SBD,Raw,F,1
52,Dmitriy Boronnikov,Amateur Youth,2002-12-30,51.7,72.5,77.5,-80,77.5,,37.5,40,42.5,42.5,,77.5,82.5,85,85,,205,SBD,Raw,M,1
52,Nikolay Grachev,Amateur Open,1956-04-16,51.9,95,100,-102.5,100,,75,77.5,-80,77.5,,140,146,147.5,147.5,-150,325,SBD,Raw,M,1
60,Maksim Bardysh,Amateur Teen 18-19,1994-10-06,58.5,115,120,125,125,,70,77.5,82.5,82.5,,-130,130,135,135,,342.5,SBD,Raw,M,1
67.5,Gagik Arutyunyan,Amateur Juniors 20-23,1990-12-09,65.9,130,140,150,150,,115,122.5,125,125,,155,165,175,175,,450,SBD,Raw,M,1
67.5,Vitaliy Ptitsyn,Amateur Juniors 20-23,1992-12-09,65.2,150,160,-165,160,,95,100,-102.5,100,,160,-180,180,180,,440,SBD,Raw,M,2
67.5,Sergey Volodarskiy,Amateur Open,1989-08-21,61.3,150,160,170,170,,110,120,122.5,122.5,,180,190,207.5,207.5,,500,SBD,Raw,M,1
67.5,Vladislav Atayev,Amateur Open,1980-08-14,67.5,140,150,160,160,,-135,137.5,140,140,,190,200,-205,200,,500,SBD,Raw,M,2
67.5,Dmitriy Kovalenko,Amateur Masters 40-44,1972-12-17,66.9,75,85,90,90,,72.5,77.5,80,80,,112.5,120,125,125,,295,SBD,Raw,M,1
75,Maksim Nikitin,Amateur Teen 16-17,1996-02-01,73.9,-170,185,195,195,,135,142.5,-147.5,142.5,,220,240,-253,240,,577.5,SBD,Raw,M,1
75,Dmitriy Knyrik,Amateur Teen 16-17,1997-05-18,74.9,97.5,102.5,-107.5,102.5,,67.5,72.5,-75,72.5,,140,145,150,150,,325,SBD,Raw,M,2
75,Vyacheslav Shmatov,Amateur Juniors 20-23,1991-03-16,74.6,-160,160,175,175,,130,-140,140,140,-152.5,190,205,220,220,,535,SBD,Raw,M,1
75,Konstantin Belyayev,Amateur Open,1989-03-22,74.7,175,,,175,,120,125,135,135,,180,190,200,200,,510,SBD,Raw,M,1
75,Pavel Gorokhov,Amateur Open,1986-04-29,71.6,185,-190,-190,185,,-110,112.5,115,115,,-180,-180,-180,,,,SBD,Raw,M,DQ
75,Aleksey Boyko,Amateur Masters 40-44,1971-04-13,71.3,105,115,120,120,,105,112.5,-117.5,112.5,,135,145,147.5,147.5,,380,SBD,Raw,M,1
82.5,Sergey Gapeyev,Amateur Teen 16-17,1996-06-02,77.6,92.5,-97.5,97.5,97.5,,60,65,70,70,,130,-137.5,-137.5,130,,297.5,SBD,Raw,M,1
82.5,Dmitriy Pavlov,Amateur Juniors 20-23,1991-11-15,81.9,190,-195,197.5,197.5,,145,150,152.5,152.5,,-240,247.5,260.5,260.5,,610,SBD,Raw,M,1
82.5,Dmitriy Khomenko,Amateur Juniors 20-23,1990-01-29,81.1,185,-190,190,190,,130,135,-140,135,,190,195,200,200,,525,SBD,Raw,M,2
82.5,Konstantin Shapovalov,Amateur Juniors 20-23,1992-12-20,78,150,-155,155,155,,-90,-90,90,90,,160,170,180,180,,425,SBD,Raw,M,3
82.5,Andrey Vasilevskiy,Amateur Open,1980-09-15,81.5,140,-160,160,160,,110,117.5,122.5,122.5,,190,202.5,210,210,,492.5,SBD,Raw,M,1
82.5,Ivan Kurchin,Amateur Open,1989-06-30,79.3,-195,-195,-195,,,-140,,,,,,,,,,,SBD,Raw,M,DQ
82.5,Vyacheslav Chevordaev,Amateur Masters 65-69,1948-04-06,81.5,180,-190,190,190,,90,-95,95,95,,210,222.5,-225,222.5,,507.5,SBD,Raw,M,1
90,Roman Amelin,Amateur Teen 16-17,1997-11-11,86.3,105,112.5,120,120,,75,-80,-80,75,,135,140,145,145,,340,SBD,Raw,M,1
90,Aleksandr Shustov,Amateur Open,1987-07-07,88.1,190,200,-210,200,,130,-135,,130,,230,-240,,230,,560,SBD,Raw,M,1
90,Aleksandr Silantyev,Amateur Open,1980-05-15,88.8,180,185,190,190,,-135,135,-140,135,,230,-235,,230,,555,SBD,Raw,M,2
90,Roman Sinetskiy,Amateur Open,1976-02-06,90,-210,-210,-210,,,-150,,,,,,,,,,,SBD,Raw,M,DQ
90,Konstantin Zhekov,Amateur Masters 40-44,1972-10-26,89,175,185,190,190,,130,137.5,142.5,142.5,,215,222.5,227.5,227.5,,560,SBD,Raw,M,1
90,Nikolay Ipatov,Amateur Masters 40-44,1971-07-06,88.4,-185,-190,-195,,,-150,,,,,-210,,,,,,SBD,Raw,M,DQ
90,Yevgeniy Zhurkin,Amateur Masters 65-69,1945-02-13,84.4,110,117.5,-120,117.5,,90,-95,95,95,,-140,140,-150,140,,352.5,SBD,Raw,M,1
90,Nikolay Novikov,Amateur Masters 75-79,1938-06-18,89.4,90,100,,100,,107.5,112.5,-115,112.5,,150,160,,160,,372.5,SBD,Raw,M,1
100,Fedor Vershinin,Amateur Juniors 20-23,1992-12-03,95.4,195,210,215,215,,165,-175,-175,165,,215,230,240,240,,620,SBD,Raw,M,1
100,Aleksey Kaloshin,Amateur Juniors 20-23,1991-12-03,91.6,-200,200,-210,200,,-145,145,-150,145,,240,250,-255,250,,595,SBD,Raw,M,2
100,Maksim Markov,Amateur Open,1985-11-07,99.4,230,-250,250,250,,170,175,180,180,,270,295,302.5,302.5,,732.5,SBD,Raw,M,1
100,Konstantin Morozov,Amateur Open,1984-10-23,98.4,210,220,-225,220,,185,-190,,185,,310,320,325,325,,730,SBD,Raw,M,2
100,Ilya Karmishin,Amateur Open,1984-10-01,99.5,215,-225,-230,215,,175,-185,185,185,,250,260,-270,260,,660,SBD,Raw,M,3
100,Sergey Karpyzin,Amateur Open,1970-12-26,98.2,215,222.5,230,230,,145,150,-155,150,,245,260,,260,,640,SBD,Raw,M,4
100,Ruslan Polyakov,Amateur Open,1984-07-01,97.5,205,210,-215,210,,155,160,-165,160,,-240,-240,240,240,,610,SBD,Raw,M,5
100,Viktor Pashkov,Amateur Open,1982-06-25,91.1,180,-190,200,200,,140,-145,150,150,,220,230,-240,230,,580,SBD,Raw,M,6
100,Vladimir Vlasov,Amateur Open,1975-01-06,91.6,145,157.5,165,165,,112.5,-120,-120,112.5,,180,190,200,200,,477.5,SBD,Raw,M,7
100,Sergey Karpyzin,Amateur Masters 40-44,1970-12-26,98.2,215,222.5,230,230,,145,150,-155,150,,245,260,267.5,267.5,,647.5,SBD,Raw,M,1
100,Dmitriy Postnov,Amateur Masters 40-44,1971-07-17,90.7,200,,,200,,145,155,-160,155,,200,,,200,,555,SBD,Raw,M,2
100,Vyacheslav Frank,Amateur Masters 50-54,1962-03-03,97.6,165,-175,180,180,,137.5,-142.5,-142.5,137.5,,200,210,215,215,,532.5,SBD,Raw,M,1
110,Andrey Shevchenko,Amateur Open,1986-10-17,104.5,215,225,232.5,232.5,,165,175,177.5,177.5,,270,285,295,295,,705,SBD,Raw,M,1
110,Mikhail Yevstigneyev,Amateur Open,1976-06-21,100.7,210,225,230,230,,185,195,200,200,,240,255,-267.5,255,,685,SBD,Raw,M,2
110,Dmitriy Pavlovskiy,Amateur Open,1988-02-01,105.4,190,200,215,215,,145,150,155,155,,250,265,-280,265,,635,SBD,Raw,M,3
110,Igor Sharapov,Amateur Masters 40-44,1971-10-30,106.5,205,215,220,220,,160,165,-172.5,165,,230,240,-245,240,,625,SBD,Raw,M,1
110,Valeriy Sytnikov,Amateur Masters 40-44,1970-02-28,109.2,160,175,180,180,,145,152.5,157.5,157.5,,245,260,270,270,,607.5,SBD,Raw,M,2
125,Aleksey Koryakin,Amateur Open,1988-04-12,113.7,230,250,-260,250,,200,210,-215,210,,250,270,-295,270,,730,SBD,Raw,M,1
125,Dmitriy Novitskiy,Amateur Open,1989-01-10,110.3,-200,200,-210,200,,160,-170,170,170,,230,240,-250,240,,610,SBD,Raw,M,2
125,Andrey Shishkin,Amateur Masters 50-54,1962-02-02,111.3,175,207.5,,207.5,,110,130,-155,130,,175,240,-275,240,,577.5,SBD,Raw,M,1
140,Nikolay Markin,Amateur Open,1981-03-14,125.7,250,-260,-260,250,,160,170,-175,170,,265,275,-287.5,275,,695,SBD,Raw,M,1
82.5,Vadim Orlov,Amateur Juniors 20-23,1990-07-18,82.5,200,-212.5,-220,200,,135,140,145,145,,210,225,235,235,,580,SBD,Multi-ply,M,1
90,Yevgeniy Grechkin,Amateur Juniors 20-23,1992-11-09,88.8,-230,240,250,250,,150,160,165,165,,250,265,-272.5,265,,680,SBD,Multi-ply,M,1
90,Igor Umerenkov,Amateur Open,1980-09-13,89.6,300,320,343,343,355.5,175.5,185,192.5,192.5,-203,285,305.5,-325.5,305.5,,841,SBD,Multi-ply,M,1
48,Margarita Khatina,Amateur Juniors 20-23,1991-12-01,47.7,95,100,105,105,,-50,50,-52.5,50,,107.5,117.5,-127.5,117.5,,272.5,SBD,Single-ply,F,1
52,Irina Dudyreva,Amateur Juniors 20-23,1990-04-15,52,135,142.5,150,150,,80,85,-90,85,,137.5,-142.5,142.5,142.5,,377.5,SBD,Single-ply,F,1
82.5,Vladislav Lyskov,Amateur Teen 18-19,1995-04-12,82,210,-220,-220,210,,120,-130,-130,120,,210,-230,-230,210,,540,SBD,Single-ply,M,1
82.5,Mikhail Tokarev,Amateur Juniors 20-23,1992-10-14,80.8,220,235,245,245,,140,150,-162.5,150,,-220,220,242.5,242.5,-272.5,637.5,SBD,Single-ply,M,1
82.5,Aleksandr Zubkov,Amateur Juniors 20-23,1992-07-25,81.3,190,200,-215,200,,120,130,145,145,,190,205,220,220,,565,SBD,Single-ply,M,2
82.5,Roman Durnov,Amateur Open,1986-09-23,81.4,260,-280,280,280,,-175,-175,175,175,,220,-247.5,-247.5,220,,675,SBD,Single-ply,M,1
82.5,Aleksey Yemelyanov,Amateur Open,1983-02-25,76.7,235,250,260,260,,170,177.5,180,180,,-220,220,-235.5,220,,660,SBD,Single-ply,M,2
90,Maksim Lapkovskiy,Amateur Juniors 20-23,1992-07-10,84.4,160,180,-190,180,,120,130,140,140,,180,190,-200,190,,510,SBD,Single-ply,M,1
90,Yevgeniy Khripunov,Amateur Open,1981-07-13,89.9,280,290,300,300,,-217.5,217.5,222.5,222.5,,260,270,-277.5,270,,792.5,SBD,Single-ply,M,1
100,Dmitriy Patyupin,Amateur Juniors 20-23,1991-11-28,93,240,-260,260,260,,180,190,200,200,,240,250,-260,250,,710,SBD,Single-ply,M,1
100,Yevgeniy Yesaulkov,Amateur Open,1989-08-06,99.7,250,265,275,275,,180,190,-192.5,190,,260,270,287.5,287.5,,752.5,SBD,Single-ply,M,1
100,Denis Ivlev,Amateur Open,1980-04-13,94.5,260,275,285,285,,200,210,-215,210,,240,250,-257.5,250,,745,SBD,Single-ply,M,2
100,Dmitriy Patyupin,Amateur Open,1991-11-28,93,240,-260,260,260,,180,190,200,200,,240,250,-260,250,,710,SBD,Single-ply,M,3
125,Andrey Drozhzhin,Amateur Open,1977-11-21,110.4,295,-310,310,310,,180,190,200,200,,250,267.5,280.5,280.5,,790,SBD,Single-ply,M,1
48,Yelena Anikovskaya,Amateur Open,1986-12-26,47.6,,,,,,55,-60,-60,55,,,,,,,55,B,Raw,F,1
52,Svetlana Fatyukhina,Amateur Teen 18-19,1994-01-01,51.2,,,,,,55,62.5,-67.5,62.5,,,,,,,62.5,B,Raw,F,1
56,Irina Ryabova,Amateur Open,1983-09-30,54.4,,,,,,65,67.5,-70,67.5,,,,,,,67.5,B,Raw,F,1
56,Raisa Sharuyeva,Amateur Open,1983-07-01,55.4,,,,,,60,-62.5,-62.5,60,,,,,,,60,B,Raw,F,2
60,Irina Skrynnikova,Amateur Teen 18-19,1994-08-24,57.1,,,,,,-50,55,57.5,57.5,,,,,,,57.5,B,Raw,F,1
60,Mariya Kolchanova,Amateur Juniors 20-23,1991-11-15,57.3,,,,,,55,60,-62.5,60,,,,,,,60,B,Raw,F,1
60,Yuliya Vizgina,Amateur Juniors 20-23,1992-02-03,59.4,,,,,,52.5,57.5,-60,57.5,,,,,,,57.5,B,Raw,F,2
60,Nataliya Zagrebina,Amateur Open,1977-10-29,59.4,,,,,,67.5,70,72.5,72.5,,,,,,,72.5,B,Raw,F,1
60,Yuliya Vizgina,Amateur Open,1992-02-03,59.5,,,,,,52.5,57.5,-60,57.5,,,,,,,57.5,B,Raw,F,2
75,Yuliya Yusupova,Amateur Open,1982-12-29,72.2,,,,,,62.5,67.5,70,70,,,,,,,70,B,Raw,F,1
90,Olga Gavrilova,Amateur Masters 50-54,1960-04-29,88.8,,,,,,45,50,52.5,52.5,,,,,,,52.5,B,Raw,F,1
90+,Antonina Tukacheva,Amateur Open,1982-11-14,92.2,,,,,,-60,60,65,65,,,,,,,65,B,Raw,F,1
52,Roman Grigoryev,Amateur Youth,2001-12-23,40.9,,,,,,30,35,-37.5,35,,,,,,,35,B,Raw,M,1
48,Natalya Klementyeva,Amateur Open,1980-10-17,47.8,,,,,,50,52.5,-57.5,52.5,,,,,,,52.5,B,Raw,F,1
56,Artur Gladyshchev,Amateur Teen 16-17,1996-12-19,55.5,,,,,,-90,95,-102.5,95,,,,,,,95,B,Raw,M,1
60,Shamil Apazaov,Amateur Teen 18-19,1994-05-23,59.9,,,,,,102.5,112.5,-117.5,112.5,,,,,,,112.5,B,Raw,M,1
60,Oleg Plastinin,Amateur Teen 18-19,1995-12-01,59.2,,,,,,-97.5,97.5,-102.5,97.5,,,,,,,97.5,B,Raw,M,2
60,Nataliya Soroko,Amateur Juniors 20-23,1990-08-23,59.1,,,,,,-57.5,-60,-60,,,,,,,,,B,Raw,F,DQ
60,Denis Buneyev,Amateur Open,1989-09-13,59.2,,,,,,112.5,115,117.5,117.5,,,,,,,117.5,B,Raw,M,1
60,Shamil Apazaov,Amateur Open,1994-05-23,59.9,,,,,,102.5,112.5,-117.5,112.5,,,,,,,112.5,B,Raw,M,2
67.5,Anton Shamin,Amateur Teen 13-15,1998-12-19,60.9,,,,,,80,87.5,92.5,92.5,,,,,,,92.5,B,Raw,M,1
67.5,Artem Kalachev,Amateur Teen 13-15,2000-08-23,67.1,,,,,,52.5,62.5,65,65,,,,,,,65,B,Raw,M,2
67.5,Dmitriy Rzhevskiy,Amateur Teen 16-17,1996-01-20,65.5,,,,,,115,125,130,130,,,,,,,130,B,Raw,M,1
67.5,Valentin Miroshnikov,Amateur Teen 16-17,1997-02-04,65.3,,,,,,95,-97.5,-97.5,95,,,,,,,95,B,Raw,M,2
67.5,Nikolay Pozhidayev,Amateur Teen 16-17,1996-05-22,66.8,,,,,,80,-90,-90,80,,,,,,,80,B,Raw,M,3
67.5,Anzor Shokuyev,Amateur Teen 18-19,1994-10-12,67.4,,,,,,107.5,125,127.5,127.5,,,,,,,127.5,B,Raw,M,1
67.5,Maksim Gridnev,Amateur Juniors 20-23,1992-10-31,66,,,,,,135,142.5,-145,142.5,,,,,,,142.5,B,Raw,M,1
67.5,Aleksandr Zakharenko,Amateur Juniors 20-23,1993-03-24,65.5,,,,,,130,135,-142.5,135,,,,,,,135,B,Raw,M,2
67.5,Andrey Dezhin,Amateur Juniors 20-23,1992-07-30,67.1,,,,,,117.5,122.5,-125,122.5,,,,,,,122.5,B,Raw,M,3
67.5,Vladimir Polupanov,Amateur Open,1983-07-03,66.5,,,,,,120,125,127.5,127.5,,,,,,,127.5,B,Raw,M,1
67.5,Viktor Kvyatkovskiy,Amateur Masters 40-44,1971-04-16,66.7,,,,,,125,130,-132.5,130,,,,,,,130,B,Raw,M,1
75,Aleksey Ushakov,Amateur Teen 16-17,1997-04-02,72.7,,,,,,117.5,120,125,125,,,,,,,125,B,Raw,M,1
75,Artem Aladyshev,Amateur Teen 16-17,1997-03-26,72.2,,,,,,80,95,-105,95,,,,,,,95,B,Raw,M,2
75,Oleg Ivlev,Amateur Teen 16-17,1997-04-13,70.5,,,,,,70,75,80,80,,,,,,,80,B,Raw,M,3
75,Aleksey Vlasyan,Amateur Teen 18-19,1994-02-18,74.8,,,,,,140,145,-147.5,145,,,,,,,145,B,Raw,M,1
75,Denis Vyugin,Amateur Teen 18-19,1994-03-17,73.8,,,,,,105,112.5,122.5,122.5,,,,,,,122.5,B,Raw,M,2
75,Aleksandr Selyuk,Amateur Juniors 20-23,1991-08-21,72.9,,,,,,162.5,167.5,-170,167.5,,,,,,,167.5,B,Raw,M,1
75,Ilya Babin,Amateur Open,1980-04-18,74.1,,,,,,170,180,-182.5,180,,,,,,,180,B,Raw,M,1
75,Aleksandr Vladimirov,Amateur Open,1982-02-06,74.8,,,,,,145,155,160,160,,,,,,,160,B,Raw,M,2
75,Pavel Grisheyev,Amateur Open,1982-06-28,73.4,,,,,,155,-162.5,-162.5,155,,,,,,,155,B,Raw,M,3
75,Vyacheslav Orekhov,Amateur Open,1985-06-11,72.7,,,,,,142.5,147.5,150,150,,,,,,,150,B,Raw,M,4
75,Maksim Vasilyev,Amateur Open,1977-09-13,71.5,,,,,,135,140,-155,140,,,,,,,140,B,Raw,M,5
75,Yevgeniy Stepura,Amateur Open,1983-07-22,74.8,,,,,,112.5,-117.5,117.5,117.5,,,,,,,117.5,B,Raw,M,6
75,Vyacheslav Mishchenko,Amateur Masters 40-44,1972-09-21,72.4,,,,,,120,125,-130,125,,,,,,,125,B,Raw,M,1
82.5,Nikita Chernomyrdin,Amateur Teen 16-17,1997-01-01,79.9,,,,,,145,150,-155,150,,,,,,,150,B,Raw,M,1
82.5,Dmitriy Zagrebin,Amateur Teen 16-17,1996-07-28,82.2,,,,,,-120,120,-127.5,120,,,,,,,120,B,Raw,M,2
82.5,Sergey Mikhaylov,Amateur Teen 18-19,1995-05-02,80.4,,,,,,130,-140,-140,130,,,,,,,130,B,Raw,M,1
82.5,Artem Chebotarev,Amateur Juniors 20-23,1990-02-10,76.7,,,,,,127.5,132.5,-135,132.5,,,,,,,132.5,B,Raw,M,1
82.5,Nikolay Bukreyev,Amateur Juniors 20-23,1992-05-28,79.9,,,,,,-120,120,-130,120,,,,,,,120,B,Raw,M,2
82.5,Pavel Danilov,Amateur Open,1988-08-14,82.5,,,,,,165,170,-185,170,,,,,,,170,B,Raw,M,1
82.5,Georgiy Kotua,Amateur Open,1984-04-19,79.5,,,,,,135,145,150,150,,,,,,,150,B,Raw,M,2
82.5,Aleksey Smirnov,Amateur Open,1987-12-11,78.3,,,,,,130,145,-160,145,,,,,,,145,B,Raw,M,3
82.5,Edgar Nepobedimyy,Amateur Open,1982-08-08,80.6,,,,,,140,-145,145,145,,,,,,,145,B,Raw,M,4
82.5,Timur Bocharov,Amateur Open,1980-10-09,81.1,,,,,,-145,145,-152.5,145,,,,,,,145,B,Raw,M,5
82.5,Sergey Laskatelev,Amateur Open,1988-09-22,82.3,,,,,,125,135,-142.5,135,,,,,,,135,B,Raw,M,6
82.5,Rustam Safin,Amateur Open,1978-09-10,75.3,,,,,,125,132.5,-135,132.5,,,,,,,132.5,B,Raw,M,7
82.5,Nikolay Balugin,Amateur Open,1987-07-24,77.8,,,,,,120,125,-127.5,125,,,,,,,125,B,Raw,M,8
82.5,Vladimir Shchegolkov,Amateur Masters 40-44,1973-01-22,77.6,,,,,,157.5,162.5,167.5,167.5,,,,,,,167.5,B,Raw,M,1
82.5,Vladimir Sidorenko,Amateur Masters 50-54,1961-10-27,79.6,,,,,,127.5,-135,135,135,,,,,,,135,B,Raw,M,1
82.5,Igor Kovalev,Amateur Masters 55-59,1957-04-08,79.4,,,,,,140,-150,-155,140,,,,,,,140,B,Raw,M,1
90,Anton Glazachev,Amateur Teen 13-15,1998-02-25,87,,,,,,65,70,72.5,72.5,,,,,,,72.5,B,Raw,M,1
90,Roman Tukhvatullin,Amateur Teen 18-19,1995-03-16,85.6,,,,,,145,150,-155,150,,,,,,,150,B,Raw,M,1
90,Vladislav Kurasov,Amateur Teen 18-19,1995-07-25,85,,,,,,125,132.5,135,135,,,,,,,135,B,Raw,M,2
90,Aleksandr Kolesnikov,Amateur Juniors 20-23,1990-09-18,89.5,,,,,,152.5,-160,160,160,,,,,,,160,B,Raw,M,1
90,Sergey Kurochkin,Amateur Open,1974-12-30,88.9,,,,,,185,195,202.5,202.5,,,,,,,202.5,B,Raw,M,1
90,Vladimir Konchakov,Amateur Open,1973-05-25,89,,,,,,185,195,-203.5,195,,,,,,,195,B,Raw,M,2
90,Denis Sytov,Amateur Open,1978-02-17,87.7,,,,,,170,180,-185,180,,,,,,,180,B,Raw,M,3
90,Andrey Bagayev,Amateur Open,1974-07-12,88.4,,,,,,-175,175,177.5,177.5,,,,,,,177.5,B,Raw,M,4
90,Andrey Krestinin,Amateur Open,1987-05-01,89.5,,,,,,170,175,-182.5,175,,,,,,,175,B,Raw,M,5
90,Mikhail Frantsov,Amateur Open,1984-08-21,85.7,,,,,,160,165,170,170,,,,,,,170,B,Raw,M,6
90,Aleksandr Shuralev,Amateur Open,1975-07-13,89.6,,,,,,165,-175,-175,165,,,,,,,165,B,Raw,M,7
90,Roman Tukhvatullin,Amateur Open,1995-03-16,85.6,,,,,,145,150,-155,150,,,,,,,150,B,Raw,M,8
90,Dmitriy Guselnikov,Amateur Open,1988-03-26,88.5,,,,,,-170,-170,-170,,,,,,,,,B,Raw,M,DQ
90,Vladimir Konchakov,Amateur Masters 40-44,1973-05-25,89,,,,,,185,195,-203.5,195,,,,,,,195,B,Raw,M,1
90,Yevgeniy Smirnov,Amateur Masters 40-44,1973-08-07,89.5,,,,,,165,-167.5,-167.5,165,,,,,,,165,B,Raw,M,2
90,Andrey Suslin,Amateur Masters 45-49,1968-04-21,88.2,,,,,,-137.5,137.5,-142.5,137.5,,,,,,,137.5,B,Raw,M,1
90,Leonid Skvortsov,Amateur Masters 50-54,1962-05-24,87.6,,,,,,155,-162.5,162.5,162.5,,,,,,,162.5,B,Raw,M,1
90,Mikhail Ronkin,Amateur Masters 50-54,1961-11-13,87.3,,,,,,130,140,-145,140,,,,,,,140,B,Raw,M,2
90,Aleksandr Vdovushkin,Amateur Masters 55-59,1956-11-04,87.4,,,,,,130,140,-145,140,,,,,,,140,B,Raw,M,1
90,Yevgeniy Zhurkin,Amateur Masters 65-69,1945-02-13,84.4,,,,,,90,95,97.5,97.5,,,,,,,97.5,B,Raw,M,1
90,Nikolay Novikov,Amateur Masters 75-79,1938-06-18,89.4,,,,,,100,105,110,110,,,,,,,110,B,Raw,M,1
100,Oleg Kharkov,Amateur Juniors 20-23,1993-05-21,92.4,,,,,,-145,145,150,150,,,,,,,150,B,Raw,M,1
100,Dmitriy Litvinenko,Amateur Open,1989-07-05,99.7,,,,,,187.5,-195,-195,187.5,,,,,,,187.5,B,Raw,M,1
100,Mikhail Bogdanov,Amateur Open,1984-07-17,95.6,,,,,,175,185,-190,185,,,,,,,185,B,Raw,M,2
100,Vladislav Zaydiner,Amateur Open,1972-06-12,95.8,,,,,,175,185,-187.5,185,,,,,,,185,B,Raw,M,3
100,Dmitriy Timofeyev,Amateur Open,1976-08-29,96.2,,,,,,175,180,-185,180,,,,,,,180,B,Raw,M,4
100,Denis Plotnikov,Amateur Open,1978-03-27,96.9,,,,,,170,180,-185,180,,,,,,,180,B,Raw,M,5
100,Mikhail Knyazkov,Amateur Open,1978-03-25,97.9,,,,,,175,-180,-185,175,,,,,,,175,B,Raw,M,6
100,Sergey Asryan,Amateur Open,1986-10-11,95.6,,,,,,140,145,147.5,147.5,,,,,,,147.5,B,Raw,M,7
100,Aleksandr Grigorov,Amateur Open,1986-05-22,94,,,,,,-140,140,-150,140,,,,,,,140,B,Raw,M,8
100,Dmitriy Kvyatkovskiy,Amateur Open,1978-08-12,96.8,,,,,,110,-112.5,-112.5,110,,,,,,,110,B,Raw,M,9
100,Vladislav Zaydiner,Amateur Masters 40-44,1972-06-12,95.8,,,,,,175,185,-187.5,185,,,,,,,185,B,Raw,M,1
100,Aleksey Figol,Amateur Masters 40-44,1973-01-26,95.4,,,,,,130,140,-142.5,140,,,,,,,140,B,Raw,M,2
100,Sergey Zolotarev,Amateur Masters 40-44,1970-10-04,98.6,,,,,,125,132.5,-135,132.5,,,,,,,132.5,B,Raw,M,3
100,Vladislav Kobelev,Amateur Masters 45-49,1968-01-30,99.3,,,,,,100,120,-140,120,,,,,,,120,B,Raw,M,1
100,Igor Lebedev,Amateur Masters 50-54,1962-08-03,99.8,,,,,,190,200,-205,200,,,,,,,200,B,Raw,M,1
100,Mikhail Karpachev,Amateur Masters 50-54,1959-11-11,97.9,,,,,,115,-120,-120,115,,,,,,,115,B,Raw,M,2
100,Mikhail Prokopov,Amateur Masters 55-59,1956-06-10,95,,,,,,140,-145,145,145,,,,,,,145,B,Raw,M,1
100,Vladimir Li,Amateur Masters 60-64,1951-10-16,96.1,,,,,,135,137.5,-140,137.5,,,,,,,137.5,B,Raw,M,1
100,Gennadiy Obmelyukhin,Amateur Masters 65-69,1948-03-21,92.1,,,,,,102.5,112.5,117.5,117.5,,,,,,,117.5,B,Raw,M,1
110,Mikhail Rybalchenko,Amateur Teen 18-19,1995-01-01,108.3,,,,,,-165,,,,,,,,,,,B,Raw,M,DQ
110,Sergey Kosarev,Amateur Juniors 20-23,1993-09-14,102.1,,,,,,135,145,150,150,,,,,,,150,B,Raw,M,1
110,Mikhail Yevstigneyev,Amateur Open,1976-06-21,100.2,,,,,,185,195,-200,195,,,,,,,195,B,Raw,M,1
110,Sergey Mordvinov,Amateur Open,1982-08-26,101.3,,,,,,185,-190,195,195,,,,,,,195,B,Raw,M,2
110,Rustam Varayev,Amateur Open,1984-10-23,102.1,,,,,,170,180,185,185,,,,,,,185,B,Raw,M,3
110,Vladimir Moshkovskiy,Amateur Open,1973-02-01,108.6,,,,,,185,-195,-195,185,,,,,,,185,B,Raw,M,4
110,Andrey Skomorokhov,Amateur Open,1985-10-29,109.7,,,,,,175,185,-195,185,,,,,,,185,B,Raw,M,5
110,Pavel Trukhtanov,Amateur Open,1976-10-30,105.2,,,,,,167.5,172.5,175,175,,,,,,,175,B,Raw,M,6
110,Denis Demb,Amateur Open,1979-07-02,107.5,,,,,,145,155,165,165,,,,,,,165,B,Raw,M,7
110,Kulakov,Amateur Open,1974-04-11,105.5,,,,,,147.5,-167.5,-167.5,147.5,,,,,,,147.5,B,Raw,M,8
110,Sergey Gershtanskiy,Amateur Open,1974-04-06,106.2,,,,,,140,145,147.5,147.5,,,,,,,147.5,B,Raw,M,9
110,Yevgeniy Moiseyenko,Amateur Open,1981-05-25,104.6,,,,,,-147.5,,,,,,,,,,,B,Raw,M,DQ
110,Vladimir Moshkovskiy,Amateur Masters 40-44,1973-02-01,108.6,,,,,,185,-195,-195,185,,,,,,,185,B,Raw,M,1
110,Valeriy Bryusov,Amateur Masters 40-44,1973-12-02,104.3,,,,,,160,165,167.5,167.5,,,,,,,167.5,B,Raw,M,2
110,Valeriy Sytnikov,Amateur Masters 40-44,1970-02-28,109.2,,,,,,145,-152.5,160,160,,,,,,,160,B,Raw,M,3
110,Vladimir Chubarov,Amateur Masters 45-49,1964-04-03,110,,,,,,120,132.5,147.5,147.5,,,,,,,147.5,B,Raw,M,1
110,Vadim Mikheyev,Amateur Masters 45-49,1966-04-21,104.4,,,,,,130,140,-147.5,140,,,,,,,140,B,Raw,M,2
110,Yuriy Komanov,Amateur Masters 50-54,1961-06-28,106.2,,,,,,115,125,-132.5,125,,,,,,,125,B,Raw,M,1
110,Viktor Ishchenko,Amateur Masters 65-69,1947-02-12,101.2,,,,,,120,,,120,,,,,,,120,B,Raw,M,1
125,Aleksandr Striga,Amateur Open,1967-10-15,125,,,,,,215,220,225,225,,,,,,,225,B,Raw,M,1
125,Yuriy Gordyakov,Amateur Open,1976-04-27,122.8,,,,,,210,-217.5,-217.5,210,,,,,,,210,B,Raw,M,2
125,Yevgeniy Sibilev,Amateur Open,1970-03-08,124.8,,,,,,187.5,202.5,205,205,,,,,,,205,B,Raw,M,3
125,Yevgeniy Sibilev,Amateur Masters 40-44,1970-03-08,124.8,,,,,,187.5,202.5,205,205,210,,,,,,205,B,Raw,M,1
125,Dmitriy Fadeyev,Amateur Masters 40-44,1972-10-21,121.5,,,,,,180,190,-195,190,,,,,,,190,B,Raw,M,2
125,Aleksandr Striga,Amateur Masters 45-49,1967-10-15,125,,,,,,215,220,225,225,,,,,,,225,B,Raw,M,1
125,Yuriy Lebedev,Amateur Masters 45-49,1968-05-06,123.4,,,,,,120,140,-152.5,140,,,,,,,140,B,Raw,M,2
125,Andrey Shishkin,Amateur Masters 50-54,1962-02-02,111.3,,,,,,110,135,145,145,,,,,,,145,B,Raw,M,1
140,Oleg Ivlev,Amateur Teen 16-17,1997-04-13,134.8,,,,,,-170,,,,,,,,,,,B,Raw,M,DQ
140,Boris Trofimov,Amateur Open,1972-03-21,139.2,,,,,,210,215,-217.5,215,,,,,,,215,B,Raw,M,1
140,Roman Marachev,Amateur Open,1978-05-16,139.6,,,,,,200,-210,-210,200,,,,,,,200,B,Raw,M,2
140,Roman Khivrin,Amateur Open,1978-04-08,135.4,,,,,,180,-185,-190,180,,,,,,,180,B,Raw,M,3
140,Boris Trofimov,Amateur Masters 40-44,1972-03-21,139.2,,,,,,210,215,-217.5,215,,,,,,,215,B,Raw,M,1
140,Sergey Ivlev,Amateur Masters 40-44,1971-03-18,134.8,,,,,,170,182.5,185,185,,,,,,,185,B,Raw,M,2
140,Sergey Aladyshev,Amateur Masters 40-44,1971-05-08,130,,,,,,150,165,-172.5,165,,,,,,,165,B,Raw,M,3
60,Nataliya Zagrebina,Amateur Open,1977-10-29,59.4,,,,,,85,-92.5,92.5,92.5,,,,,,,92.5,B,Multi-ply,F,1
100,Grigoriy Lysov,Amateur Open,1976-03-23,99.8,,,,,,-195,-195,195,195,,,,,,,195,B,Multi-ply,M,1
110,Denis Grigoryev,Amateur Open,1982-08-07,103.2,,,,,,-220,-220,-220,,,,,,,,,B,Multi-ply,M,DQ
125,Vasiliy Filatov,Amateur Open,1986-09-29,117.9,,,,,,-250,-260,-260,,,,,,,,,B,Multi-ply,M,DQ
56,Natalya Blinkova,Amateur Juniors 20-23,1991-03-20,54.4,,,,,,100,-107.5,-113,100,,,,,,,100,B,Single-ply,F,1
67.5,Andrey Dezhin,Amateur Juniors 20-23,1992-07-30,67.1,,,,,,135,-145,145,145,,,,,,,145,B,Single-ply,M,1
82.5,Denis Kopyttsev,Amateur Juniors 20-23,1990-12-31,79.7,,,,,,142.5,152.5,-162.5,152.5,,,,,,,152.5,B,Single-ply,M,1
82.5,Ivan Popov,Amateur Open,1984-06-07,80,,,,,,165,170,-175,170,,,,,,,170,B,Single-ply,M,1
90,Yevgeniy Khripunov,Amateur Open,1981-07-13,89.5,,,,,,220,225.5,230,230,-232.5,,,,,,230,B,Single-ply,M,1
90,Maksim Bragin,Amateur Open,1979-05-11,89.7,,,,,,190,200,-206,200,,,,,,,200,B,Single-ply,M,2
90,Aleksandr Makarov,Amateur Masters 55-59,1957-01-02,88.5,,,,,,175,185,190,190,,,,,,,190,B,Single-ply,M,1
100,Anatoliy Totskiy,Amateur Open,1974-02-02,94.7,,,,,,210,-225,-225,210,,,,,,,210,B,Single-ply,M,1
100,Dmitriy Litvinenko,Amateur Open,1989-07-05,99.7,,,,,,200,210,-225,210,,,,,,,210,B,Single-ply,M,2
100,Igor Solomichev,Amateur Masters 45-49,1967-01-27,95.6,,,,,,180,190,-200,190,,,,,,,190,B,Single-ply,M,1
100,Vyacheslav Frank,Amateur Masters 50-54,1962-03-03,98.6,,,,,,-160,-160,-160,,,,,,,,,B,Single-ply,M,DQ
140,Mikhail Balakhonov,Amateur Open,1987-04-28,132,,,,,,170,-180,,170,,,,,,,170,B,Single-ply,M,1
60,Mariya Kolchanova,Amateur Juniors 20-23,1991-11-15,57.3,,,,,,,,,,,92.5,100,110,110,,110,D,Raw,F,1
67.5,Yuliya Umerenkova,Amateur Open,1980-12-09,67,,,,,,,,,,,165,177.5,182.5,182.5,,182.5,D,Raw,F,1
75,Yuliya Semenova,Amateur Open,1988-05-03,73.8,,,,,,,,,,,127.5,-135,-142.5,127.5,,127.5,D,Raw,F,1
90+,Antonina Tukacheva,Amateur Open,1982-11-14,92.2,,,,,,,,,,,120,,,120,,120,D,Raw,F,1
75,Artem Boytsov,Amateur Teen 13-15,1998-06-18,73.8,,,,,,,,,,,155,167.5,177.5,177.5,,177.5,D,Raw,M,1
75,Vladislav Sergeyev,Amateur Teen 16-17,1996-01-26,74.6,,,,,,,,,,,185,-202.5,-202.5,185,,185,D,Raw,M,1
75,Artur Kadyrov,Amateur Teen 16-17,1996-03-15,74.9,,,,,,,,,,,120,,,120,,120,D,Raw,M,2
75,Yevgeniy Avdeyev,Amateur Teen 18-19,1994-09-30,75,,,,,,,,,,,205,220,-232.5,220,,220,D,Raw,M,1
75,Sergey Krutilov,Amateur Teen 18-19,1994-07-07,69.8,,,,,,,,,,,190,202.5,-210,202.5,,202.5,D,Raw,M,2
75,Aleksandr Salakhanov,Amateur Teen 18-19,1995-12-08,72.3,,,,,,,,,,,160,170,177.5,177.5,,177.5,D,Raw,M,3
75,Dmitriy Fursov,Amateur Juniors 20-23,1991-04-18,74.2,,,,,,,,,,,202.5,210,-232.5,210,,210,D,Raw,M,1
75,Aleksey Stepanets,Amateur Juniors 20-23,1991-06-11,72.4,,,,,,,,,,,180,202.5,207.5,207.5,,207.5,D,Raw,M,2
75,Nikolay Altunin,Amateur Open,1977-07-24,71.2,,,,,,,,,,,200,230,,230,,230,D,Raw,M,1
75,Aleksey Boyko,Amateur Masters 40-44,1971-04-13,70.5,,,,,,,,,,,135,142.5,147.5,147.5,,147.5,D,Raw,M,1
75,Viktor Popov,Amateur Masters 60-64,1952-07-15,74.9,,,,,,,,,,,195,206,207.5,207.5,,207.5,D,Raw,M,1
82.5,Sergey Yevseyev,Amateur Juniors 20-23,1990-10-09,80.6,,,,,,,,,,,230,245,-260,245,,245,D,Raw,M,1
82.5,Sergey Gurkovskiy,Amateur Juniors 20-23,1990-08-17,75.6,,,,,,,,,,,210,220,-245,220,,220,D,Raw,M,2
82.5,Andrey Yurov,Amateur Juniors 20-23,1993-01-09,81.5,,,,,,,,,,,172.5,185,195,195,,195,D,Raw,M,3
82.5,Sergey Petrov,Amateur Juniors 20-23,1991-08-24,82.2,,,,,,,,,,,-162.5,162.5,185,185,-245.5,185,D,Raw,M,4
82.5,Sergey Gurkovskiy,Amateur Open,1990-08-17,75.6,,,,,,,,,,,210,220,-245,220,,220,D,Raw,M,1
82.5,Sergey Laskatelev,Amateur Open,1988-09-22,82.3,,,,,,,,,,,185,195,-200,195,,195,D,Raw,M,2
82.5,Mikhail Sotnikov,Amateur Open,1979-04-15,81.5,,,,,,,,,,,175,185,-200,185,,185,D,Raw,M,3
82.5,Viktor Skokin,Amateur Masters 55-59,1957-06-20,81,,,,,,,,,,,220,232.5,236,236,,236,D,Raw,M,1
90,Anton Goloshchapov,Amateur Open,1989-03-14,88,,,,,,,,,,,222.5,230,237.5,237.5,,237.5,D,Raw,M,1
90,Aleksey Goryakin,Amateur Open,1990-02-24,87.3,,,,,,,,,,,215,225,-235,225,,225,D,Raw,M,2
90,Dmitriy Platonov,Amateur Open,1981-08-13,87.8,,,,,,,,,,,205,215,220,220,,220,D,Raw,M,3
90,Andrey Shepelev,Amateur Open,1988-03-15,83.9,,,,,,,,,,,-195,195,202.5,202.5,,202.5,D,Raw,M,4
90,Yevgeniy Zhurkin,Amateur Masters 65-69,1945-02-13,84.4,,,,,,,,,,,140,152.5,155,155,,155,D,Raw,M,1
100,Nikita Golovan,Amateur Teen 16-17,1996-10-17,98.5,,,,,,,,,,,170,192.5,195,195,-202.5,195,D,Raw,M,1
100,Khamid Azikov,Amateur Juniors 20-23,1992-05-06,97,,,,,,,,,,,210,240,-255,240,,240,D,Raw,M,1
100,Oleg Chernikov,Amateur Open,1981-04-21,95.6,,,,,,,,,,,230,250,-265,250,,250,D,Raw,M,1
110,Dmitriy Ozerov,Amateur Teen 18-19,1995-11-10,105.9,,,,,,,,,,,240,250,-275,250,,250,D,Raw,M,1
110,Sergey Lishchuk,Amateur Open,1967-11-05,101.2,,,,,,,,,,,220,240,250,250,,250,D,Raw,M,1
110,Mikhail Knyazkov,Amateur Open,1978-03-25,100.4,,,,,,,,,,,170,185,200,200,,200,D,Raw,M,2
110,Yevgeniy Moiseyenko,Amateur Open,1981-05-25,104.6,,,,,,,,,,,-200,,,,,,D,Raw,M,DQ
110,Valeriy Sytnikov,Amateur Masters 40-44,1970-02-28,109.2,,,,,,,,,,,-245,255,270,270,,270,D,Raw,M,1
110,Sergey Lishchuk,Amateur Masters 45-49,1967-11-05,101.2,,,,,,,,,,,220,240,250,250,,250,D,Raw,M,1
110,Andrey Burakov,Amateur Masters 55-59,1958-09-17,100.9,,,,,,,,,,,165,190,205,205,,205,D,Raw,M,1
125,Ilya Shevelev,Amateur Teen 16-17,1997-08-02,122.6,,,,,,,,,,,220,-240,240,240,,240,D,Raw,M,1
125,Andrey Shishkin,Amateur Open,1962-02-02,111.3,,,,,,,,,,,185,230,250,250,255,250,D,Raw,M,1
125,Andrey Shishkin,Amateur Masters 50-54,1962-02-02,111.3,,,,,,,,,,,185,230,250,250,255,250,D,Raw,M,1
75,Nikolay Altunin,Amateur Open,1977-07-24,71.2,,,,,,,,,,,200,230,,230,,230,D,Multi-ply,M,1
82.5,Maksim Borisov,Amateur Juniors 20-23,1992-08-13,80.8,,,,,,,,,,,260,270,280,280,,280,D,Multi-ply,M,1
125,Aleksey Kuchma,Amateur Open,1979-01-04,113,,,,,,,,,,,260,280,,280,,280,D,Multi-ply,M,1
