Name,Sex,Equipment,Event,Division,BodyweightKg,WeightClassKg,Squat1Kg,Squat2Kg,Squat3Kg,Best3SquatKg,Bench1Kg,Bench2Kg,Bench3Kg,Best3BenchKg,Deadlift1Kg,Deadlift2Kg,Deadlift3Kg,Best3DeadliftKg,TotalKg,Place,AgeRange
Jenny Hunter,F,Single-ply,SBD,F-E-Open,52,52,70,80,85,85,70,75,80,80,120,130,135,135,300,1,49.5-58.5
Bethany Wylie,F,Single-ply,SBD,F-E-Open,47.3,52,65,75,85,85,25,30,-37.5,30,85,95,105,105,220,2,14-17.5
Sally Williams,F,Single-ply,SBD,F-E-Open,48.1,52,40,47.5,-55,47.5,27.5,30,32.5,32.5,65,-72.5,80,80,160,3,23.5-38.5
Karrie Childs,F,Single-ply,SBD,F-E-Open,61.8,63,95,100,105,105,45,47.5,50,50,115,125,130,130,285,1,23.5-38.5
Suzanne Goulder,F,Single-ply,SBD,F-E-Open,60.5,63,85,90,-97.5,90,-50,52.5,-57.5,52.5,110,115,120,120,262.5,2,18.5-19.5
Paula Gentle,F,Raw,SBD,F-C-Open,61.4,63,75,80,-85,80,45,50,-52.5,50,120,122.5,125,125,255,3,39.5-48.5
Nina Cambatta,F,Single-ply,SBD,F-E-Open,67.8,72,112.5,120,125,125,60,65,70,70,150,160,170,170,365,1,23.5-38.5
Anastasia Zinchenko,F,Single-ply,SBD,F-E-Open,69.5,72,-110,110,117.5,117.5,67.5,72.5,75,75,132.5,142.5,-145,142.5,335,2,23.5-38.5
Wendy Williams,F,Raw,SBD,F-C-Open,68.1,72,90,100,110,110,45,50,52.5,52.5,130,140,147.5,147.5,310,3,39.5-48.5
Rowan Smith,F,Single-ply,SBD,F-E-Open,70.9,72,75,80,85,85,50,55,-57.5,55,95,102.5,110,110,250,4,39.5-48.5
Annelise Barnes,F,Single-ply,SBD,F-E-Open,80.1,84,-100,100,110,110,70,75,-80,75,120,130,140,140,325,1,23.5-38.5
Laura Mitchell,F,Single-ply,SBD,F-E-Open,78.9,84,85,90,95,95,40,45,-50,45,105,110,115,115,255,2,23.5-38.5
Camille Holland,F,Raw,SBD,F-C-Open,113.2,84+,150,170,190,190,80,90,100,100,150,170,-200,170,460,1,23.5-38.5
Sean Rowlands,M,Single-ply,SBD,M-E-Open,63.9,66,170,185,195,195,85,-92.5,95,95,177.5,190,200,200,490,1,49.5-58.5
Sean Maloney,M,Single-ply,SBD,M-E-Open,65.6,66,135,145,150,150,92.5,97.5,-102.5,97.5,175,185,-195,185,432.5,2,23.5-38.5
Steve Walker #1,M,Single-ply,SBD,M-E-Open,72.7,74,-200,200,210,210,145,155,160,160,215,230,240,240,610,1,49.5-58.5
Ali Ghareeb,M,Single-ply,SBD,M-E-Open,73.3,74,180,-190,190,190,115,120,-122.5,120,225,235,245,245,555,2,23.5-38.5
Nathan Sugden,M,Single-ply,SBD,M-E-Open,72.4,74,170,177.5,-185,177.5,-115,120,-125,120,215,230,-240,230,527.5,3,23.5-38.5
Stephen Snowling,M,Single-ply,SBD,M-E-Open,73.4,74,-115,115,130,130,85,-97.5,-100,85,155,-170,-170,155,370,4,23.5-38.5
Doug D'Gama,M,Single-ply,SBD,M-E-Open,82.3,83,200,-210,210,210,140,147.5,-152.5,147.5,220,240,250,250,607.5,1,49.5-58.5
Lee Betteridge,M,Single-ply,SBD,M-E-Open,82,83,180,200,205,205,135,140,142.5,142.5,235,252.5,-257.5,252.5,600,2,23.5-38.5
Tom Rowell,M,Single-ply,SBD,M-E-Open,82.4,83,200,210,-215,210,110,117.5,120,120,240,255,260,260,590,3,23.5-38.5
Callum Goddard,M,Single-ply,SBD,M-E-Open,81.3,83,190,205,-215,205,135,142.5,147.5,147.5,200,215,230,230,582.5,4,18.5-19.5
Matthew Price,M,Single-ply,SBD,M-E-Open,82.8,83,180,187.5,-192.5,187.5,120,-127.5,127.5,127.5,250,-260,-260,250,565,5,23.5-38.5
James Zhao,M,Single-ply,SBD,M-E-Open,81.7,83,180,190,-195,190,97.5,105,110,110,215,230,240,240,540,6,23.5-38.5
Ricardo Lucas,M,Single-ply,SBD,M-E-Open,77.5,83,185,195,200,200,105,115,120,120,180,200,-210,200,520,7,23.5-38.5
Ali Wilson,M,Single-ply,SBD,M-E-Open,81.9,83,130,140,145,145,110,115,117.5,117.5,190,-207.5,-207.5,190,452.5,8,39.5-48.5
Kevin Jane,M,Single-ply,SBD,M-E-Open,92.7,93,245,265,-275,265,155,162.5,165,165,250,-270,270,270,700,1,59.5-68.5
Wilberth Solano,M,Single-ply,SBD,M-E-Open,92.4,93,180,190,195,195,130,135,-137.5,135,250,-260,-260,250,580,2,23.5-38.5
Alp Notghi,M,Single-ply,SBD,M-E-Open,84.1,93,180,190,-200,190,120,125,130,130,230,240,,240,560,3,23.5-38.5
Gary Allen,M,Single-ply,SBD,M-E-Open,90.7,93,170,180,-187.5,180,125,132.5,-137.5,132.5,200,210,-220,210,522.5,4,23.5-38.5
Nuno Lima,M,Single-ply,SBD,M-E-Open,88.3,93,140,155,-165,155,85,90,-95,90,175,185,-195,185,430,5,23.5-38.5
Varun Choda,M,Single-ply,SBD,M-E-Open,90.3,93,155,-160,-160,155,-100,-100,-100,,190,200,215,215,,DQ,23.5-38.5
Richard Patman,M,Single-ply,SBD,M-E-Open,94.9,105,200,220,240,240,150,165,175,175,200,230,250,250,665,1,23.5-38.5
James Thompson #7,M,Single-ply,SBD,M-E-Open,96.1,105,200,207.5,212.5,212.5,-137.5,140,145,145,235,245,252.5,252.5,610,2,23.5-38.5
Justin Green,M,Single-ply,SBD,M-E-Open,100.7,105,125,130,137.5,137.5,95,105,112.5,112.5,170,185,202.5,202.5,452.5,3,39.5-48.5
Sam Harvey,M,Single-ply,SBD,M-E-Open,119.3,120,252.5,-272.5,272.5,272.5,175,185,192.5,192.5,235,250,257.5,257.5,722.5,1,23.5-38.5
Francis Sanders,M,Single-ply,SBD,M-E-Open,109.5,120,210,230,240,240,150,160,-165,160,275,300,310,310,710,2,23.5-38.5
Thomas Vazson,M,Single-ply,SBD,M-E-Open,116.5,120,232.5,247.5,262.5,262.5,150,-162.5,-162.5,150,250,265,270,270,682.5,3,23.5-38.5
Rhett Milton,M,Single-ply,SBD,M-E-Open,105.5,120,200,205,-210,205,160,-162.5,-165,160,240,250,265,265,630,4,23.5-38.5
Jake O'Neill,M,Single-ply,SBD,M-E-Open,106.9,120,290,310,,310,200,210,,210,280,300,,300,820,G,23.5-38.5
Andrew Hodgson,M,Single-ply,SBD,M-E-Open,122.1,120+,200,210,215,215,160,170,-175,170,230,250,,250,635,1,23.5-38.5
